{"photos":{"page":1,"pages":49,"perpage":100,"total":"4855","photo":[{"id":"47703115351","owner":"132559153@N07","secret":"0750d85bc2","server":"65535","farm":66,"title":"12,13,14 APRIL 2019 SHARATH KUMAR (YOGESH B-LORE)","ispublic":1,"isfriend":0,"isfamily":0},{"id":"47486213232","owner":"156321315@N06","secret":"c43219322a","server":"7841","farm":8,"title":"Peechy sy garm ho gyi hai | WhatsApp standing humorous TikTok movies","ispublic":1,"isfriend":0,"isfamily":0},{"id":"47062698591","owner":"160480031@N07","secret":"412cae0999","server":"7903","farm":8,"title":"Doctors & hospital care in rural India","ispublic":1,"isfriend":0,"isfamily":0},{"id":"40707672923","owner":"171058849@N03","secret":"74470d102b","server":"65535","farm":66,"title":"Jaipur-rugs-luxeva","ispublic":1,"isfriend":0,"isfamily":0},{"id":"46941153984","owner":"155867230@N05","secret":"71279a1360","server":"0","farm":0,"title":"Fractured Spine_ Experience Of An Operated Patient","ispublic":1,"isfriend":0,"isfamily":0},{"id":"32673772587","owner":"169639524@N05","secret":"a38bc73dd6","server":"65535","farm":66,"title":"Gohel, Yogesh J_FINAL","ispublic":1,"isfriend":0,"isfamily":0},{"id":"47535272621","owner":"132559153@N07","secret":"24d99a7cd4","server":"7800","farm":8,"title":"5,6,7 MARCH - 2019 PRAKSH (YOGESH).","ispublic":1,"isfriend":0,"isfamily":0},{"id":"47473104272","owner":"156321315@N06","secret":"acc12d35a6","server":"7877","farm":8,"title":"Mr Faisu VS Sagar Goswami | Who\u2019s the Finest | Mr Faisu, Sagar Goswami Group 07 Humorous Tik Tok Movies","ispublic":1,"isfriend":0,"isfamily":0},{"id":"47436820042","owner":"162808984@N06","secret":"3c8d5e0761","server":"7806","farm":8,"title":"2018 Music City Tech_6485","ispublic":1,"isfriend":0,"isfamily":0},{"id":"47462635781","owner":"147643347@N04","secret":"d2dce16e7c","server":"7927","farm":8,"title":"Yogesh Joshi","ispublic":1,"isfriend":0,"isfamily":0},{"id":"46668359354","owner":"169012694@N07","secret":"27b88608b7","server":"0","farm":0,"title":"Dost dost hota hai (Team Rss ) official video","ispublic":1,"isfriend":0,"isfamily":0},{"id":"47335428562","owner":"162507511@N04","secret":"9455bf0768","server":"7849","farm":8,"title":"\u0921\u0940\u090f\u0932\u090f\u0921 \u092a\u094d\u0930\u0936\u093f\u0915\u094d\u0937\u0941\u0913\u0902 \u0915\u094b \u092e\u0924\u0926\u093e\u0928 \u0915\u0940 \u091c\u093e\u0928\u0915\u093e\u0930\u0940 | TV Today INDIA","ispublic":1,"isfriend":0,"isfamily":0},{"id":"47380897011","owner":"37918386@N06","secret":"3547aceb3a","server":"7878","farm":8,"title":"Yogesh Hotel","ispublic":1,"isfriend":0,"isfamily":0},{"id":"46657833064","owner":"37918386@N06","secret":"728152d48e","server":"7820","farm":8,"title":"Yogesh Hotel","ispublic":1,"isfriend":0,"isfamily":0},{"id":"40415493423","owner":"37918386@N06","secret":"628167a454","server":"7907","farm":8,"title":"Bhoje chau Rs.30","ispublic":1,"isfriend":0,"isfamily":0},{"id":"47328033632","owner":"37918386@N06","secret":"248edd9776","server":"7891","farm":8,"title":"Bhoje chau Rs.30","ispublic":1,"isfriend":0,"isfamily":0},{"id":"40415492953","owner":"37918386@N06","secret":"478ebc73e3","server":"7878","farm":8,"title":"Bhoje chau Rs.30","ispublic":1,"isfriend":0,"isfamily":0},{"id":"47321786512","owner":"147450992@N03","secret":"1ecf171284","server":"7825","farm":8,"title":"Yogesh Gathe #yogeshgathe #yogeshgathecreation #Akola #Dada #yogeshdada #yogesh","ispublic":1,"isfriend":0,"isfamily":0},{"id":"47321779072","owner":"147450992@N03","secret":"8bb936762b","server":"7922","farm":8,"title":"Yogesh Gathe #yogeshgathe #yogeshgathecreation #Akola #Dada #yogeshdada #yogesh","ispublic":1,"isfriend":0,"isfamily":0},{"id":"32424076257","owner":"142774178@N03","secret":"ce27a58f41","server":"7884","farm":8,"title":"Sports Events - 2019 at GIS","ispublic":1,"isfriend":0,"isfamily":0},{"id":"32424075897","owner":"142774178@N03","secret":"e3a25f9de0","server":"7893","farm":8,"title":"Sports Events - 2019 at GIS","ispublic":1,"isfriend":0,"isfamily":0},{"id":"46450932145","owner":"142774178@N03","secret":"2bef17fb09","server":"7881","farm":8,"title":"Sports Events - 2019 at GIS","ispublic":1,"isfriend":0,"isfamily":0},{"id":"46642690674","owner":"142774178@N03","secret":"49c14ebc4e","server":"7876","farm":8,"title":"Sports Events - 2019 at GIS","ispublic":1,"isfriend":0,"isfamily":0},{"id":"46450931385","owner":"142774178@N03","secret":"3914bd57c8","server":"7861","farm":8,"title":"Sports Events - 2019 at GIS","ispublic":1,"isfriend":0,"isfamily":0},{"id":"32424074027","owner":"142774178@N03","secret":"a524b42948","server":"7809","farm":8,"title":"Sports Events - 2019 at GIS","ispublic":1,"isfriend":0,"isfamily":0},{"id":"33489711698","owner":"142774178@N03","secret":"1afa6b59ea","server":"7861","farm":8,"title":"Sports Events - 2019 at GIS","ispublic":1,"isfriend":0,"isfamily":0},{"id":"33489710888","owner":"142774178@N03","secret":"90f84f3697","server":"7907","farm":8,"title":"Sports Events - 2019 at GIS","ispublic":1,"isfriend":0,"isfamily":0},{"id":"46642687154","owner":"142774178@N03","secret":"595530d771","server":"7836","farm":8,"title":"Sports Events - 2019 at GIS","ispublic":1,"isfriend":0,"isfamily":0},{"id":"46642686844","owner":"142774178@N03","secret":"abdd46c744","server":"7925","farm":8,"title":"Sports Events - 2019 at GIS","ispublic":1,"isfriend":0,"isfamily":0},{"id":"47365962361","owner":"142774178@N03","secret":"ae00742df3","server":"7920","farm":8,"title":"Sports Events - 2019 at GIS","ispublic":1,"isfriend":0,"isfamily":0},{"id":"46642686004","owner":"142774178@N03","secret":"e842fd1ea2","server":"7838","farm":8,"title":"Sports Events - 2019 at GIS","ispublic":1,"isfriend":0,"isfamily":0},{"id":"40395708253","owner":"51698748@N02","secret":"fd2efcd06a","server":"7828","farm":8,"title":"IMG_1190sm","ispublic":1,"isfriend":0,"isfamily":0},{"id":"46434845035","owner":"162507511@N04","secret":"47517094f2","server":"7843","farm":8,"title":"\u0926\u094d\u0935\u093e\u0930\u0915\u093e\u0927\u0940\u0936 \u091c\u0940 \u0915\u093e \u0939\u094b\u0932\u0940 \u0917\u093e\u092f\u0928 | TV Today INDIA","ispublic":1,"isfriend":0,"isfamily":0},{"id":"32398261707","owner":"145815660@N08","secret":"a413853604","server":"7908","farm":8,"title":"yogesh","ispublic":1,"isfriend":0,"isfamily":0},{"id":"47334220251","owner":"162507511@N04","secret":"c846b4bf52","server":"7829","farm":8,"title":"Mangla Today Dwarkadhish | 9 March 2019 | TV Today India","ispublic":1,"isfriend":0,"isfamily":0},{"id":"33444680708","owner":"156768363@N05","secret":"cf0bd11425","server":"7908","farm":8,"title":"yogesh-kumar-972807-unsplash","ispublic":1,"isfriend":0,"isfamily":0},{"id":"47320443731","owner":"156768363@N05","secret":"db74dc9544","server":"7852","farm":8,"title":"yogesh-kumar-972807-unsplash (1)","ispublic":1,"isfriend":0,"isfamily":0},{"id":"40355396363","owner":"156768363@N05","secret":"39ea43256a","server":"7859","farm":8,"title":"yogesh-kumar-972807-unsplash","ispublic":1,"isfriend":0,"isfamily":0},{"id":"46405574775","owner":"156768363@N05","secret":"fa176220c5","server":"7806","farm":8,"title":"yogesh-kumar-972807-unsplash (1)","ispublic":1,"isfriend":0,"isfamily":0},{"id":"47267998692","owner":"156768363@N05","secret":"8dd254329e","server":"7815","farm":8,"title":"yogesh-kumar-972807-unsplash (1)","ispublic":1,"isfriend":0,"isfamily":0},{"id":"47267998522","owner":"156768363@N05","secret":"74bfc81587","server":"7846","farm":8,"title":"yogesh-kumar-972807-unsplash","ispublic":1,"isfriend":0,"isfamily":0},{"id":"46396318185","owner":"162507511@N04","secret":"e975ced87d","server":"7919","farm":8,"title":"\u0915\u0947\u0936\u0935 \u0926\u0947\u0935 \u092e\u0928\u094d\u0926\u093f\u0930 \u092a\u0930 \u092b\u0942\u0932 \u092c\u0902\u0917\u0932\u093e \u0906\u092f\u094b\u091c\u093f\u0924 | Today INDIA","ispublic":1,"isfriend":0,"isfamily":0},{"id":"33388270168","owner":"168743366@N06","secret":"d81cb76379","server":"7842","farm":8,"title":"Yogesh rathour","ispublic":1,"isfriend":0,"isfamily":0},{"id":"46534223774","owner":"74891230@N04","secret":"2e00b20289","server":"7817","farm":8,"title":"Yogesh Ojha Hackathon","ispublic":1,"isfriend":0,"isfamily":0},{"id":"46534222724","owner":"74891230@N04","secret":"8c2f873f3e","server":"7861","farm":8,"title":"Yogesh Ojha Robot","ispublic":1,"isfriend":0,"isfamily":0},{"id":"46534221604","owner":"74891230@N04","secret":"17bdfbbb0d","server":"7847","farm":8,"title":"Yogesh Ojha Robot","ispublic":1,"isfriend":0,"isfamily":0},{"id":"46534221124","owner":"74891230@N04","secret":"d38f6b6367","server":"7909","farm":8,"title":"Yogesh Ojha Robot","ispublic":1,"isfriend":0,"isfamily":0},{"id":"33382009128","owner":"74891230@N04","secret":"c4c6ce747e","server":"7900","farm":8,"title":"Yogesh Ojha Robot","ispublic":1,"isfriend":0,"isfamily":0},{"id":"33382008488","owner":"74891230@N04","secret":"80b99b1054","server":"7911","farm":8,"title":"Yogesh Ojha Robot","ispublic":1,"isfriend":0,"isfamily":0},{"id":"33382008108","owner":"74891230@N04","secret":"bb69c2dddd","server":"7855","farm":8,"title":"Yogesh Ojha Robot","ispublic":1,"isfriend":0,"isfamily":0},{"id":"46534218334","owner":"74891230@N04","secret":"dea7625fa6","server":"7829","farm":8,"title":"Yogesh Ojha Robot","ispublic":1,"isfriend":0,"isfamily":0},{"id":"33382007658","owner":"74891230@N04","secret":"d4133b366e","server":"7865","farm":8,"title":"Yogesh Ojha Robot","ispublic":1,"isfriend":0,"isfamily":0},{"id":"46534216694","owner":"74891230@N04","secret":"dda677bc5f","server":"7904","farm":8,"title":"Yogesh Ojha TCS Hackquest","ispublic":1,"isfriend":0,"isfamily":0},{"id":"47257748001","owner":"74891230@N04","secret":"f41fb5bc19","server":"7875","farm":8,"title":"Yogesh Ojha","ispublic":1,"isfriend":0,"isfamily":0},{"id":"33382005818","owner":"74891230@N04","secret":"51c69be3a4","server":"7828","farm":8,"title":"Yogesh Ojha","ispublic":1,"isfriend":0,"isfamily":0},{"id":"33382005408","owner":"74891230@N04","secret":"d1e801e2f2","server":"7831","farm":8,"title":"Yogesh Ojha","ispublic":1,"isfriend":0,"isfamily":0},{"id":"32203492527","owner":"157577622@N06","secret":"25bec0182f","server":"7836","farm":8,"title":"Yogesh","ispublic":1,"isfriend":0,"isfamily":0},{"id":"40126867413","owner":"146938210@N06","secret":"d73448f12a","server":"7870","farm":8,"title":"Yogesh 01","ispublic":1,"isfriend":0,"isfamily":0},{"id":"32120010767","owner":"156302197@N03","secret":"cb3c9963c3","server":"7826","farm":8,"title":"Yogesh Narwariya basoda","ispublic":1,"isfriend":0,"isfamily":0},{"id":"32120009827","owner":"156302197@N03","secret":"b46f833d83","server":"7811","farm":8,"title":"Yogesh Narwariya basoda","ispublic":1,"isfriend":0,"isfamily":0},{"id":"32120009727","owner":"156302197@N03","secret":"41e32760a9","server":"7876","farm":8,"title":"Yogesh Narwariya basoda","ispublic":1,"isfriend":0,"isfamily":0},{"id":"40057458353","owner":"86494503@N00","secret":"fca65fbdbf","server":"4860","farm":5,"title":"IMG_4488","ispublic":1,"isfriend":0,"isfamily":0},{"id":"40057457863","owner":"86494503@N00","secret":"2a4be20506","server":"7819","farm":8,"title":"IMG_4493","ispublic":1,"isfriend":0,"isfamily":0},{"id":"46278704824","owner":"145113407@N05","secret":"eb617dc25e","server":"7846","farm":8,"title":"Innovation for Science","ispublic":1,"isfriend":0,"isfamily":0},{"id":"33058121458","owner":"129673089@N03","secret":"be7893ceb8","server":"7909","farm":8,"title":"Mumbai - Forest owlet","ispublic":1,"isfriend":0,"isfamily":0},{"id":"31989372667","owner":"129673089@N03","secret":"bcd3b50aaf","server":"4855","farm":5,"title":"Forest owlet","ispublic":1,"isfriend":0,"isfamily":0},{"id":"46145199454","owner":"69224695@N06","secret":"bd9f386b9a","server":"4826","farm":5,"title":"02_Music_Festival_on_the 12th_January_2019@Ramakrishna_Mission_Delhi","ispublic":1,"isfriend":0,"isfamily":0},{"id":"39905186013","owner":"69224695@N06","secret":"cec7b4cc96","server":"4886","farm":5,"title":"01_Music_Festival_on_the 12th_January_2019@Ramakrishna_Mission_Delhi","ispublic":1,"isfriend":0,"isfamily":0},{"id":"39905185833","owner":"69224695@N06","secret":"c546f980cf","server":"4917","farm":5,"title":"03_Music_Festival_on_the 12th_January_2019@Ramakrishna_Mission_Delhi","ispublic":1,"isfriend":0,"isfamily":0},{"id":"46145199354","owner":"69224695@N06","secret":"782bf4847b","server":"4896","farm":5,"title":"04_Music_Festival_on_the 12th_January_2019@Ramakrishna_Mission_Delhi","ispublic":1,"isfriend":0,"isfamily":0},{"id":"39905185653","owner":"69224695@N06","secret":"9c94a8dd45","server":"7832","farm":8,"title":"05_Music_Festival_on_the 12th_January_2019@Ramakrishna_Mission_Delhi","ispublic":1,"isfriend":0,"isfamily":0},{"id":"46145199234","owner":"69224695@N06","secret":"701604df89","server":"7823","farm":8,"title":"06_Music_Festival_on_the 12th_January_2019@Ramakrishna_Mission_Delhi","ispublic":1,"isfriend":0,"isfamily":0},{"id":"39905185513","owner":"69224695@N06","secret":"ab1e97264a","server":"4858","farm":5,"title":"07_Music_Festival_on_the 12th_January_2019@Ramakrishna_Mission_Delhi","ispublic":1,"isfriend":0,"isfamily":0},{"id":"46145199074","owner":"69224695@N06","secret":"a340cafc90","server":"7857","farm":8,"title":"08_Music_Festival_on_the 12th_January_2019@Ramakrishna_Mission_Delhi","ispublic":1,"isfriend":0,"isfamily":0},{"id":"39905185343","owner":"69224695@N06","secret":"9009f39cbc","server":"7916","farm":8,"title":"09_Music_Festival_on_the 12th_January_2019@Ramakrishna_Mission_Delhi","ispublic":1,"isfriend":0,"isfamily":0},{"id":"46145198834","owner":"69224695@N06","secret":"449197e015","server":"7892","farm":8,"title":"10_Music_Festival_on_the 12th_January_2019@Ramakrishna_Mission_Delhi","ispublic":1,"isfriend":0,"isfamily":0},{"id":"39905185133","owner":"69224695@N06","secret":"884dcef76e","server":"4812","farm":5,"title":"11_Music_Festival_on_the 12th_January_2019@Ramakrishna_Mission_Delhi","ispublic":1,"isfriend":0,"isfamily":0},{"id":"46145198694","owner":"69224695@N06","secret":"420538abbc","server":"7875","farm":8,"title":"12_Music_Festival_on_the 12th_January_2019@Ramakrishna_Mission_Delhi","ispublic":1,"isfriend":0,"isfamily":0},{"id":"39905184963","owner":"69224695@N06","secret":"97d66ae0c2","server":"7862","farm":8,"title":"13_Music_Festival_on_the 12th_January_2019@Ramakrishna_Mission_Delhi","ispublic":1,"isfriend":0,"isfamily":0},{"id":"46145198614","owner":"69224695@N06","secret":"df6c83e17e","server":"7821","farm":8,"title":"15_Music_Festival_on_the 12th_January_2019@Ramakrishna_Mission_Delhi","ispublic":1,"isfriend":0,"isfamily":0},{"id":"39905184793","owner":"69224695@N06","secret":"ca355570d4","server":"7927","farm":8,"title":"14_Music_Festival_on_the 12th_January_2019@Ramakrishna_Mission_Delhi","ispublic":1,"isfriend":0,"isfamily":0},{"id":"39905184673","owner":"69224695@N06","secret":"6ec20eaa67","server":"4835","farm":5,"title":"17_Music_Festival_on_the 12th_January_2019@Ramakrishna_Mission_Delhi","ispublic":1,"isfriend":0,"isfamily":0},{"id":"46145198264","owner":"69224695@N06","secret":"600cf183e3","server":"7890","farm":8,"title":"16_Music_Festival_on_the 12th_January_2019@Ramakrishna_Mission_Delhi","ispublic":1,"isfriend":0,"isfamily":0},{"id":"46145198164","owner":"69224695@N06","secret":"acb7e13272","server":"7840","farm":8,"title":"18_Music_Festival_on_the 12th_January_2019@Ramakrishna_Mission_Delhi","ispublic":1,"isfriend":0,"isfamily":0},{"id":"46116989034","owner":"131159479@N08","secret":"c22bded11c","server":"7875","farm":8,"title":"Yogesh Vohra","ispublic":1,"isfriend":0,"isfamily":0},{"id":"32938256978","owner":"163499091@N07","secret":"91ab12be2f","server":"7892","farm":8,"title":"IMG_20180510_174845700","ispublic":1,"isfriend":0,"isfamily":0},{"id":"46775082651","owner":"164343472@N02","secret":"07d42601d0","server":"7806","farm":8,"title":"Yogesh Record","ispublic":1,"isfriend":0,"isfamily":0},{"id":"45974116444","owner":"157577622@N06","secret":"0168e62ab1","server":"7834","farm":8,"title":"IMG_9819","ispublic":1,"isfriend":0,"isfamily":0},{"id":"46687081211","owner":"161618481@N07","secret":"67f4b2c7d0","server":"7807","farm":8,"title":"Bulandshahr Violence : Another suspect BJYM member Shikhar Agarwal arrested","ispublic":1,"isfriend":0,"isfamily":0},{"id":"31741192467","owner":"143861425@N02","secret":"389ac0aed9","server":"4825","farm":5,"title":"Yogesh dhukiya","ispublic":1,"isfriend":0,"isfamily":0},{"id":"39711021483","owner":"143737937@N07","secret":"da6c026094","server":"4834","farm":5,"title":"#Khelo #India . Shri Krishna School . #SKSians","ispublic":1,"isfriend":0,"isfamily":0},{"id":"39638184593","owner":"153923575@N06","secret":"80abbf0f76","server":"4827","farm":5,"title":"Yogesh Chouhan","ispublic":1,"isfriend":0,"isfamily":0},{"id":"46551411982","owner":"153923575@N06","secret":"15d3f6a226","server":"7815","farm":8,"title":"Yogesh Chouhan","ispublic":1,"isfriend":0,"isfamily":0},{"id":"32729353348","owner":"153923575@N06","secret":"7e3a032f7f","server":"7801","farm":8,"title":"Yogesh Chouhan","ispublic":1,"isfriend":0,"isfamily":0},{"id":"31662351907","owner":"153923575@N06","secret":"a69efb0314","server":"7822","farm":8,"title":"Yogesh Chouhan","ispublic":1,"isfriend":0,"isfamily":0},{"id":"32729352618","owner":"153923575@N06","secret":"508d28206f","server":"4807","farm":5,"title":"Yogesh Chouhan","ispublic":1,"isfriend":0,"isfamily":0},{"id":"45689139515","owner":"153923575@N06","secret":"e3f202321d","server":"7811","farm":8,"title":"Yogesh Chouhan","ispublic":1,"isfriend":0,"isfamily":0},{"id":"32729352228","owner":"153923575@N06","secret":"9a30b88fc4","server":"7914","farm":8,"title":"Yogesh Chouhan","ispublic":1,"isfriend":0,"isfamily":0},{"id":"45879151244","owner":"153923575@N06","secret":"c50d762359","server":"7909","farm":8,"title":"Yogesh Chouhan","ispublic":1,"isfriend":0,"isfamily":0}]},"stat":"ok"}
